EESchema Schematic File Version 2
LIBS:pwr
LIBS:r
LIBS:c
LIBS:led
LIBS:powered
LIBS:kl25-32
LIBS:micro_usb_b
LIBS:gencon
LIBS:testpoint
LIBS:kltab-cache
EELAYER 24 0
EELAYER END
$Descr A4 11693 8268
encoding utf-8
Sheet 1 1
Title ""
Date "23 oct 2014"
Rev ""
Comp ""
Comment1 ""
Comment2 ""
Comment3 ""
Comment4 ""
$EndDescr
$Comp
L KL25-32 U1
U 1 1 542581CB
P 7100 3700
F 0 "U1" H 5950 4950 60  0000 C CNN
F 1 "KL25-32" H 7100 3700 60  0000 C CNN
F 2 "~" H 7900 3550 60  0000 C CNN
F 3 "~" H 7900 3550 60  0000 C CNN
	1    7100 3700
	1    0    0    -1  
$EndComp
$Comp
L CONN_5 CON5
U 1 1 54258221
P 10600 5700
F 0 "CON5" H 10600 6000 60  0000 C CNN
F 1 "CONN_5" H 10600 5400 60  0000 C CNN
F 2 "" H 10600 5700 60  0000 C CNN
F 3 "" H 10600 5700 60  0000 C CNN
	1    10600 5700
	1    0    0    -1  
$EndComp
$Comp
L GND #PWR01
U 1 1 54258241
P 10000 6100
F 0 "#PWR01" H 10000 6100 30  0001 C CNN
F 1 "GND" H 10000 6030 30  0001 C CNN
F 2 "" H 10000 6100 60  0000 C CNN
F 3 "" H 10000 6100 60  0000 C CNN
	1    10000 6100
	1    0    0    -1  
$EndComp
$Comp
L ZX62-B-5PA CON3
U 1 1 542582CD
P 1400 3500
F 0 "CON3" H 1400 3000 60  0000 C CNN
F 1 "ZX62R-AB-5PA" H 1400 4000 60  0000 C CNN
F 2 "" H 1400 3500 60  0000 C CNN
F 3 "" H 1400 3500 60  0000 C CNN
	1    1400 3500
	-1   0    0    1   
$EndComp
$Comp
L GND #PWR02
U 1 1 542582E4
P 650 4000
F 0 "#PWR02" H 650 4000 30  0001 C CNN
F 1 "GND" H 650 3930 30  0001 C CNN
F 2 "" H 650 4000 60  0000 C CNN
F 3 "" H 650 4000 60  0000 C CNN
	1    650  4000
	1    0    0    -1  
$EndComp
$Comp
L R R6
U 1 1 54258326
P 3450 3500
F 0 "R6" V 3500 3900 60  0000 C CNN
F 1 "33" V 3450 3500 60  0000 C CNN
F 2 "" H 3450 3500 60  0000 C CNN
F 3 "" H 3450 3500 60  0000 C CNN
	1    3450 3500
	0    -1   -1   0   
$EndComp
$Comp
L R R7
U 1 1 54258333
P 3450 3650
F 0 "R7" V 3500 4050 60  0000 C CNN
F 1 "33" V 3450 3650 60  0000 C CNN
F 2 "" H 3450 3650 60  0000 C CNN
F 3 "" H 3450 3650 60  0000 C CNN
	1    3450 3650
	0    -1   -1   0   
$EndComp
$Comp
L GND #PWR03
U 1 1 5425835E
P 2200 4000
F 0 "#PWR03" H 2200 4000 30  0001 C CNN
F 1 "GND" H 2200 3930 30  0001 C CNN
F 2 "" H 2200 4000 60  0000 C CNN
F 3 "" H 2200 4000 60  0000 C CNN
	1    2200 4000
	1    0    0    -1  
$EndComp
$Comp
L LED D1
U 1 1 54258379
P 8800 1700
F 0 "D1" H 8800 1800 60  0000 C CNN
F 1 "LED" H 8800 1600 60  0000 C CNN
F 2 "" H 8800 1700 60  0000 C CNN
F 3 "" H 8800 1700 60  0000 C CNN
	1    8800 1700
	1    0    0    -1  
$EndComp
$Comp
L R R1
U 1 1 54258388
P 8150 1700
F 0 "R1" V 8250 1700 60  0000 C CNN
F 1 "120" V 8150 1700 60  0000 C CNN
F 2 "" H 8150 1700 60  0000 C CNN
F 3 "" H 8150 1700 60  0000 C CNN
	1    8150 1700
	0    -1   -1   0   
$EndComp
$Comp
L R R2
U 1 1 54258395
P 8150 2000
F 0 "R2" V 8250 2000 60  0000 C CNN
F 1 "120" V 8150 2000 60  0000 C CNN
F 2 "" H 8150 2000 60  0000 C CNN
F 3 "" H 8150 2000 60  0000 C CNN
	1    8150 2000
	0    -1   -1   0   
$EndComp
$Comp
L R R3
U 1 1 5425839B
P 9600 2700
F 0 "R3" V 9700 2700 60  0000 C CNN
F 1 "120" V 9600 2700 60  0000 C CNN
F 2 "" H 9600 2700 60  0000 C CNN
F 3 "" H 9600 2700 60  0000 C CNN
	1    9600 2700
	0    -1   -1   0   
$EndComp
$Comp
L LED D2
U 1 1 542583A1
P 8800 2000
F 0 "D2" H 8800 2100 60  0000 C CNN
F 1 "LED" H 8800 1900 60  0000 C CNN
F 2 "" H 8800 2000 60  0000 C CNN
F 3 "" H 8800 2000 60  0000 C CNN
	1    8800 2000
	1    0    0    -1  
$EndComp
$Comp
L LED D3
U 1 1 542583A7
P 10300 2700
F 0 "D3" H 10300 2800 60  0000 C CNN
F 1 "LED" H 10300 2600 60  0000 C CNN
F 2 "" H 10300 2700 60  0000 C CNN
F 3 "" H 10300 2700 60  0000 C CNN
	1    10300 2700
	-1   0    0    -1  
$EndComp
$Comp
L R R4
U 1 1 542583BC
P 9600 3000
F 0 "R4" V 9700 3000 60  0000 C CNN
F 1 "120" V 9600 3000 60  0000 C CNN
F 2 "" H 9600 3000 60  0000 C CNN
F 3 "" H 9600 3000 60  0000 C CNN
	1    9600 3000
	0    -1   -1   0   
$EndComp
$Comp
L LED D4
U 1 1 542583C2
P 10300 3000
F 0 "D4" H 10300 3100 60  0000 C CNN
F 1 "LED" H 10300 2900 60  0000 C CNN
F 2 "" H 10300 3000 60  0000 C CNN
F 3 "" H 10300 3000 60  0000 C CNN
	1    10300 3000
	-1   0    0    -1  
$EndComp
$Comp
L GND #PWR04
U 1 1 54258683
P 5400 5000
F 0 "#PWR04" H 5400 5000 30  0001 C CNN
F 1 "GND" H 5400 4930 30  0001 C CNN
F 2 "" H 5400 5000 60  0000 C CNN
F 3 "" H 5400 5000 60  0000 C CNN
	1    5400 5000
	1    0    0    -1  
$EndComp
$Comp
L C C3
U 1 1 5425868B
P 4300 4600
F 0 "C3" H 4350 4700 60  0000 L CNN
F 1 "100nF" H 4350 4500 60  0000 L CNN
F 2 "" H 4300 4600 60  0000 C CNN
F 3 "" H 4300 4600 60  0000 C CNN
	1    4300 4600
	1    0    0    -1  
$EndComp
$Comp
L C C2
U 1 1 54258698
P 3900 4600
F 0 "C2" H 3950 4700 60  0000 L CNN
F 1 "2.2uF" H 3950 4500 60  0000 L CNN
F 2 "" H 3900 4600 60  0000 C CNN
F 3 "" H 3900 4600 60  0000 C CNN
	1    3900 4600
	1    0    0    -1  
$EndComp
$Comp
L C C1
U 1 1 5425869E
P 3500 4600
F 0 "C1" H 3550 4700 60  0000 L CNN
F 1 "1uF" H 3550 4500 60  0000 L CNN
F 2 "" H 3500 4600 60  0000 C CNN
F 3 "" H 3500 4600 60  0000 C CNN
	1    3500 4600
	1    0    0    -1  
$EndComp
$Comp
L C C4
U 1 1 542586A4
P 9000 6300
F 0 "C4" H 9050 6400 60  0000 L CNN
F 1 "1uF" H 9050 6200 60  0000 L CNN
F 2 "" H 9000 6300 60  0000 C CNN
F 3 "" H 9000 6300 60  0000 C CNN
	1    9000 6300
	1    0    0    -1  
$EndComp
$Comp
L GND #PWR05
U 1 1 54258764
P 4300 5000
F 0 "#PWR05" H 4300 5000 30  0001 C CNN
F 1 "GND" H 4300 4930 30  0001 C CNN
F 2 "" H 4300 5000 60  0000 C CNN
F 3 "" H 4300 5000 60  0000 C CNN
	1    4300 5000
	1    0    0    -1  
$EndComp
$Comp
L GND #PWR06
U 1 1 5425876A
P 3900 5000
F 0 "#PWR06" H 3900 5000 30  0001 C CNN
F 1 "GND" H 3900 4930 30  0001 C CNN
F 2 "" H 3900 5000 60  0000 C CNN
F 3 "" H 3900 5000 60  0000 C CNN
	1    3900 5000
	1    0    0    -1  
$EndComp
$Comp
L GND #PWR07
U 1 1 54258770
P 3500 5000
F 0 "#PWR07" H 3500 5000 30  0001 C CNN
F 1 "GND" H 3500 4930 30  0001 C CNN
F 2 "" H 3500 5000 60  0000 C CNN
F 3 "" H 3500 5000 60  0000 C CNN
	1    3500 5000
	1    0    0    -1  
$EndComp
$Comp
L 3V3 #PWR08
U 1 1 54258E4A
P 9800 5350
F 0 "#PWR08" H 9800 5310 30  0001 C CNN
F 1 "3V3" H 9800 5500 60  0000 C CNN
F 2 "" H 9800 5350 60  0000 C CNN
F 3 "" H 9800 5350 60  0000 C CNN
	1    9800 5350
	1    0    0    -1  
$EndComp
$Comp
L 3V3 #PWR09
U 1 1 5425902F
P 9000 5400
F 0 "#PWR09" H 9000 5360 30  0001 C CNN
F 1 "3V3" H 9000 5550 60  0000 C CNN
F 2 "" H 9000 5400 60  0000 C CNN
F 3 "" H 9000 5400 60  0000 C CNN
	1    9000 5400
	1    0    0    -1  
$EndComp
$Comp
L GND #PWR010
U 1 1 54259035
P 9000 6700
F 0 "#PWR010" H 9000 6700 30  0001 C CNN
F 1 "GND" H 9000 6630 30  0001 C CNN
F 2 "" H 9000 6700 60  0000 C CNN
F 3 "" H 9000 6700 60  0000 C CNN
	1    9000 6700
	1    0    0    -1  
$EndComp
$Comp
L GND #PWR011
U 1 1 5425915C
P 7950 6100
F 0 "#PWR011" H 7950 6100 30  0001 C CNN
F 1 "GND" H 7950 6030 30  0001 C CNN
F 2 "" H 7950 6100 60  0000 C CNN
F 3 "" H 7950 6100 60  0000 C CNN
	1    7950 6100
	1    0    0    -1  
$EndComp
$Comp
L GND #PWR012
U 1 1 54259A79
P 9200 2200
F 0 "#PWR012" H 9200 2200 30  0001 C CNN
F 1 "GND" H 9200 2130 30  0001 C CNN
F 2 "" H 9200 2200 60  0000 C CNN
F 3 "" H 9200 2200 60  0000 C CNN
	1    9200 2200
	1    0    0    -1  
$EndComp
$Comp
L 3V3 #PWR013
U 1 1 54259ED7
P 3900 2100
F 0 "#PWR013" H 3900 2060 30  0001 C CNN
F 1 "3V3" H 3900 2250 60  0000 C CNN
F 2 "" H 3900 2100 60  0000 C CNN
F 3 "" H 3900 2100 60  0000 C CNN
	1    3900 2100
	1    0    0    -1  
$EndComp
$Comp
L CONN_5 CON4
U 1 1 5425AC89
P 10800 3600
F 0 "CON4" H 10800 3900 60  0000 C CNN
F 1 "CONN_5" H 10800 3300 60  0000 C CNN
F 2 "" H 10800 3600 60  0000 C CNN
F 3 "" H 10800 3600 60  0000 C CNN
	1    10800 3600
	1    0    0    -1  
$EndComp
Text Label 6800 1500 1    60   ~ 0
D7
Text Label 6900 1500 1    60   ~ 0
D6
Text Label 7000 1500 1    60   ~ 0
D5
Text Label 7100 1500 1    60   ~ 0
D4
Text Label 7000 1500 1    60   ~ 0
D5
Text Label 7200 1500 1    60   ~ 0
C7
Text Label 7300 1500 1    60   ~ 0
C6
Text Label 7400 1500 1    60   ~ 0
C5
Text Label 7500 1500 1    60   ~ 0
C4
Text Label 10100 3400 0    60   ~ 0
C3
Text Label 10100 3500 0    60   ~ 0
C2
Text Label 10100 3600 0    60   ~ 0
C1
Text Label 10100 3700 0    60   ~ 0
B1
Text Label 10100 3800 0    60   ~ 0
B0
Text Label 6950 6300 1    60   ~ 0
A1
Text Label 7050 6300 1    60   ~ 0
A2
Text Label 7150 6300 1    60   ~ 0
A4
Text Label 8900 3950 0    60   ~ 0
nRESET
Text Label 2400 3800 0    60   ~ 0
VBUS
Text Label 2400 3500 0    60   ~ 0
DP
Text Label 2400 3650 0    60   ~ 0
DM
Text Label 2400 3350 0    60   ~ 0
ID
Text Label 9200 5900 0    60   ~ 0
SWD_CLK
Text Label 9200 5800 0    60   ~ 0
SWD_DIO
$Comp
L TESTPOINT TP1
U 1 1 5425B5BE
P 2300 6100
F 0 "TP1" H 2300 6350 60  0000 C CNN
F 1 "TESTPOINT" H 2300 6050 60  0001 C CNN
F 2 "" H 2300 6100 60  0000 C CNN
F 3 "" H 2300 6100 60  0000 C CNN
	1    2300 6100
	1    0    0    -1  
$EndComp
$Comp
L TESTPOINT TP2
U 1 1 5425B5C4
P 2600 6100
F 0 "TP2" H 2600 6350 60  0000 C CNN
F 1 "TESTPOINT" H 2600 6050 60  0001 C CNN
F 2 "" H 2600 6100 60  0000 C CNN
F 3 "" H 2600 6100 60  0000 C CNN
	1    2600 6100
	1    0    0    -1  
$EndComp
$Comp
L GND #PWR014
U 1 1 5425B5CA
P 2300 6500
F 0 "#PWR014" H 2300 6500 30  0001 C CNN
F 1 "GND" H 2300 6430 30  0001 C CNN
F 2 "" H 2300 6500 60  0000 C CNN
F 3 "" H 2300 6500 60  0000 C CNN
	1    2300 6500
	1    0    0    -1  
$EndComp
$Comp
L 3V3 #PWR015
U 1 1 5425B5DA
P 2900 6100
F 0 "#PWR015" H 2900 6060 30  0001 C CNN
F 1 "3V3" H 2900 6250 60  0000 C CNN
F 2 "" H 2900 6100 60  0000 C CNN
F 3 "" H 2900 6100 60  0000 C CNN
	1    2900 6100
	1    0    0    -1  
$EndComp
$Comp
L R R5
U 1 1 54259AEB
P 4950 3800
F 0 "R5" V 5000 3400 60  0000 C CNN
F 1 "0" V 4950 3800 60  0000 C CNN
F 2 "" H 4950 3800 60  0000 C CNN
F 3 "" H 4950 3800 60  0000 C CNN
	1    4950 3800
	0    1    -1   0   
$EndComp
NoConn ~ 8650 4100
NoConn ~ 8650 4250
Wire Wire Line
	650  3200 650  4000
Wire Wire Line
	650  3200 850  3200
Wire Wire Line
	850  3300 650  3300
Connection ~ 650  3300
Wire Wire Line
	850  3450 650  3450
Connection ~ 650  3450
Wire Wire Line
	850  3550 650  3550
Connection ~ 650  3550
Wire Wire Line
	850  3700 650  3700
Connection ~ 650  3700
Wire Wire Line
	850  3800 650  3800
Connection ~ 650  3800
Wire Wire Line
	2000 3500 3200 3500
Wire Wire Line
	2000 3650 3200 3650
Wire Wire Line
	2200 3200 2200 4000
Wire Wire Line
	5600 3500 3700 3500
Wire Wire Line
	3700 3650 5600 3650
Wire Wire Line
	8650 3800 10400 3800
Wire Wire Line
	5400 3350 5400 5000
Wire Wire Line
	5400 3350 5600 3350
Wire Wire Line
	5600 4250 5400 4250
Connection ~ 5400 4250
Wire Wire Line
	4300 4800 4300 5000
Wire Wire Line
	3900 4800 3900 5000
Wire Wire Line
	3500 4800 3500 5000
Wire Wire Line
	3900 2800 3900 4400
Wire Wire Line
	4300 3800 4300 4400
Connection ~ 4300 3800
Wire Wire Line
	5600 4100 4300 4100
Connection ~ 4300 4100
Wire Wire Line
	3500 4400 3500 3950
Wire Wire Line
	2800 3950 5600 3950
Wire Wire Line
	8650 3950 9600 3950
Wire Wire Line
	9000 5400 9000 6100
Wire Wire Line
	9000 6500 9000 6700
Wire Wire Line
	7950 5250 7950 6100
Wire Wire Line
	8400 1700 8600 1700
Wire Wire Line
	8400 2000 8600 2000
Wire Wire Line
	9850 2700 10100 2700
Wire Wire Line
	9850 3000 10100 3000
Wire Wire Line
	8650 3650 9250 3650
Wire Wire Line
	9250 3650 9250 3700
Wire Wire Line
	9250 3700 10400 3700
Wire Wire Line
	8650 3500 9400 3500
Wire Wire Line
	9400 3500 9400 3600
Wire Wire Line
	9400 3600 10400 3600
Wire Wire Line
	8650 3350 9600 3350
Wire Wire Line
	9600 3350 9600 3500
Wire Wire Line
	9600 3500 10400 3500
Wire Wire Line
	8650 3200 9800 3200
Wire Wire Line
	9800 3200 9800 3400
Wire Wire Line
	9800 3400 10400 3400
Wire Wire Line
	8900 3650 8900 2700
Wire Wire Line
	8900 2700 9350 2700
Connection ~ 8900 3650
Wire Wire Line
	9100 3800 9100 3000
Wire Wire Line
	9100 3000 9350 3000
Connection ~ 9100 3800
Wire Wire Line
	9200 1700 9000 1700
Wire Wire Line
	9000 2000 9200 2000
Connection ~ 9200 2000
Wire Wire Line
	10500 2700 10700 2700
Connection ~ 10700 2700
Wire Wire Line
	10700 3000 10500 3000
Wire Wire Line
	6600 2200 6600 1700
Wire Wire Line
	6600 1700 7900 1700
Wire Wire Line
	6750 2000 7900 2000
Connection ~ 3900 3800
Connection ~ 3500 3950
Wire Wire Line
	6750 1800 6750 2200
Wire Wire Line
	7200 1200 7200 2200
Wire Wire Line
	7350 2200 7350 2100
Wire Wire Line
	7350 2100 7300 2100
Wire Wire Line
	7300 2100 7300 1200
Wire Wire Line
	7500 2200 7500 1900
Wire Wire Line
	7500 1900 7400 1900
Wire Wire Line
	7400 1900 7400 1200
Wire Wire Line
	7650 2200 7650 1800
Wire Wire Line
	7650 1800 7500 1800
Wire Wire Line
	7500 1800 7500 1200
Wire Wire Line
	7050 2200 7050 2100
Wire Wire Line
	7050 2100 7100 2100
Wire Wire Line
	7100 2100 7100 1200
Wire Wire Line
	6900 2200 6900 1900
Wire Wire Line
	6900 1900 7000 1900
Wire Wire Line
	7000 1900 7000 1200
Wire Wire Line
	6750 1800 6900 1800
Wire Wire Line
	6900 1800 6900 1200
Connection ~ 6750 2000
Wire Wire Line
	6800 1700 6800 1200
Connection ~ 6800 1700
Wire Wire Line
	3000 3200 5600 3200
Wire Wire Line
	2600 6100 2600 6300
Wire Wire Line
	2600 6300 3400 6300
Wire Wire Line
	2900 6300 2900 6100
Wire Wire Line
	2300 6100 2300 6500
Wire Wire Line
	3900 3800 4700 3800
Wire Wire Line
	6750 5250 6750 5900
Wire Wire Line
	7200 5800 7200 5250
Wire Wire Line
	7050 5250 7050 6500
Wire Wire Line
	6900 5250 6900 5500
Wire Wire Line
	6900 5500 6950 5500
Wire Wire Line
	6950 5500 6950 6500
Wire Wire Line
	7350 5250 7350 6000
Wire Wire Line
	7350 6000 7150 6000
Wire Wire Line
	7150 6000 7150 6500
$Comp
L GND #PWR016
U 1 1 5425B132
P 7650 6100
F 0 "#PWR016" H 7650 6100 30  0001 C CNN
F 1 "GND" H 7650 6030 30  0001 C CNN
F 2 "" H 7650 6100 60  0000 C CNN
F 3 "" H 7650 6100 60  0000 C CNN
	1    7650 6100
	1    0    0    -1  
$EndComp
Wire Wire Line
	7650 5250 7650 6100
Wire Wire Line
	9000 5600 7500 5600
Wire Wire Line
	7500 5600 7500 5250
Connection ~ 9000 5600
Wire Wire Line
	7200 5800 10200 5800
Wire Wire Line
	6750 5900 10200 5900
Wire Wire Line
	9600 3950 9600 5500
Wire Wire Line
	9600 5500 10200 5500
Wire Wire Line
	10000 6100 10000 5600
Wire Wire Line
	10000 5600 10200 5600
Wire Wire Line
	10200 5700 9800 5700
Wire Wire Line
	9800 5700 9800 5350
$Comp
L POWERED #FLG017
U 1 1 5425D147
P 1800 5900
F 0 "#FLG017" H 2000 5800 60  0001 C CNN
F 1 "POWERED" H 1800 5950 60  0000 C CNN
F 2 "" H 1800 5900 60  0000 C CNN
F 3 "" H 1800 5900 60  0000 C CNN
	1    1800 5900
	1    0    0    -1  
$EndComp
Wire Wire Line
	2300 6300 1800 6300
Wire Wire Line
	1800 6300 1800 6100
Connection ~ 2300 6300
$Comp
L POWERED #FLG018
U 1 1 5425D1E4
P 3400 5900
F 0 "#FLG018" H 3600 5800 60  0001 C CNN
F 1 "POWERED" H 3400 5950 60  0000 C CNN
F 2 "" H 3400 5900 60  0000 C CNN
F 3 "" H 3400 5900 60  0000 C CNN
	1    3400 5900
	1    0    0    -1  
$EndComp
Wire Wire Line
	3400 6300 3400 6100
Connection ~ 2900 6300
$Comp
L POWERED #FLG019
U 1 1 5425D27C
P 2800 2800
F 0 "#FLG019" H 3000 2700 60  0001 C CNN
F 1 "POWERED" H 2800 2850 60  0000 C CNN
F 2 "" H 2800 2800 60  0000 C CNN
F 3 "" H 2800 2800 60  0000 C CNN
	1    2800 2800
	1    0    0    -1  
$EndComp
Wire Wire Line
	9200 1700 9200 2200
Wire Wire Line
	10700 2500 10700 3000
$Comp
L 3V3 #PWR020
U 1 1 54260477
P 10700 2500
F 0 "#PWR020" H 10700 2460 30  0001 C CNN
F 1 "3V3" H 10700 2650 60  0000 C CNN
F 2 "" H 10700 2500 60  0000 C CNN
F 3 "" H 10700 2500 60  0000 C CNN
	1    10700 2500
	1    0    0    -1  
$EndComp
Wire Wire Line
	2000 3200 2200 3200
Wire Wire Line
	2000 3800 2800 3800
Wire Wire Line
	2800 3000 2800 3950
Connection ~ 2800 3800
Wire Wire Line
	5200 3800 5600 3800
Wire Wire Line
	2000 3350 3000 3350
Wire Wire Line
	3000 3350 3000 3200
$Comp
L CONN_8 CON1
U 1 1 5426DEEE
P 7150 800
F 0 "CON1" H 7150 1250 60  0000 C CNN
F 1 "CONN_8" H 7150 350 60  0000 C CNN
F 2 "" H 7150 800 60  0000 C CNN
F 3 "" H 7150 800 60  0000 C CNN
	1    7150 800 
	0    -1   -1   0   
$EndComp
$Comp
L R R8
U 1 1 5426DF43
P 3900 2550
F 0 "R8" H 4030 2600 60  0000 C CNN
F 1 "0" H 4050 2500 60  0000 C CNN
F 2 "" H 3900 2550 60  0000 C CNN
F 3 "" H 3900 2550 60  0000 C CNN
	1    3900 2550
	1    0    0    -1  
$EndComp
Wire Wire Line
	3900 2300 3900 2100
$Comp
L CONN_4 CON2
U 1 1 5426E14A
P 7000 6900
F 0 "CON2" H 7000 7150 60  0000 C CNN
F 1 "CONN_4" H 7000 6650 60  0000 C CNN
F 2 "" H 7000 6900 60  0000 C CNN
F 3 "" H 7000 6900 60  0000 C CNN
	1    7000 6900
	0    -1   1    0   
$EndComp
Wire Wire Line
	6600 5250 6600 6000
Wire Wire Line
	6600 6000 6850 6000
Wire Wire Line
	6850 6000 6850 6500
Text Label 6850 6300 1    60   ~ 0
E30
$Comp
L POWERED #FLG021
U 1 1 5426E5EA
P 4600 2600
F 0 "#FLG021" H 4800 2500 60  0001 C CNN
F 1 "POWERED" H 4600 2650 60  0000 C CNN
F 2 "" H 4600 2600 60  0000 C CNN
F 3 "" H 4600 2600 60  0000 C CNN
	1    4600 2600
	1    0    0    -1  
$EndComp
Wire Wire Line
	3900 3000 4600 3000
Wire Wire Line
	4600 3000 4600 2800
Connection ~ 3900 3000
Text Notes 10800 5750 0    60   ~ 0
VDD
Text Notes 10800 5650 0    60   ~ 0
GND
Text Notes 10800 5550 0    60   ~ 0
DAT0
Text Notes 10800 5850 0    60   ~ 0
CMD
Text Notes 10800 5950 0    60   ~ 0
DAT3
Text Notes 9650 6900 0    60   ~ 0
Recommended UBB assignment
Wire Notes Line
	10900 6000 10900 6800
$EndSCHEMATC
